%YAML 1.1
%TAG !u! tag:unity3d.com,2011:
--- !u!114 &11400000
MonoBehaviour:
  m_ObjectHideFlags: 0
  m_CorrespondingSourceObject: {fileID: 0}
  m_PrefabInstance: {fileID: 0}
  m_PrefabAsset: {fileID: 0}
  m_GameObject: {fileID: 0}
  m_Enabled: 1
  m_EditorHideFlags: 0
  m_Script: {fileID: 11500000, guid: 13b75c95f34a00d4e8c04f76b73312e6, type: 3}
  m_Name: 12
  m_EditorClassIdentifier: 
  m_Sprite: {fileID: 0}
  m_Color: {r: 1, g: 1, b: 1, a: 1}
  m_Transform:
    e00: 1
    e01: 0
    e02: 0
    e03: 0
    e10: 0
    e11: 1
    e12: 0
    e13: 0
    e20: 0
    e21: 0
    e22: 1
    e23: 0
    e30: 0
    e31: 0
    e32: 0
    e33: 1
  m_InstancedGameObject: {fileID: 0}
  m_Flags: 1
  m_ColliderType: 1
  m_AnimatedSprites:
  - {fileID: 21302654, guid: de412617a4753ca4c934cd0d3383fae5, type: 3}
  - {fileID: 21302664, guid: de412617a4753ca4c934cd0d3383fae5, type: 3}
  - {fileID: 21302674, guid: de412617a4753ca4c934cd0d3383fae5, type: 3}
  - {fileID: 21302684, guid: de412617a4753ca4c934cd0d3383fae5, type: 3}
  - {fileID: 21302674, guid: de412617a4753ca4c934cd0d3383fae5, type: 3}
  - {fileID: 21302664, guid: de412617a4753ca4c934cd0d3383fae5, type: 3}
  m_MinSpeed: 1
  m_MaxSpeed: 1
  m_AnimationStartTime: 0
  m_TileColliderType: 0
